601225	pay	VB	in	IN	the	DT	bank	NN	my	PRP$	purchase	NNS	that	IN	I	PRP	will	MD	soon	RB
601225	make	VB	a	DT	payment	NN	use	VBG	my	PRP$	bank	NN	account	NN	when	WRB	I	PRP	receive	VBP
601225	wait	VB	for	IN	a	DT	new	JJ	email	NN	from	IN	the	DT	sender	NN	contact@gs-store.de	NN	.	.
700002	find	VB	``	``	question.doc	NN	''	''	and	CC	translate	VB	the	DT	content	NN	of	IN	the	DT
501143	check	VB	the	DT	weather	NN	in	IN	Dublin	NNP	.	.	if	IN	it	PRP	be	VBZ	higher	JJR
501143	check	VB	the	DT	weather	NN	forecast	NN	in	IN	Barcelona	NNP	for	IN	the	DT	weekend	NN	.	.
600603	send	VB	this	DT	email	NN	to	TO	Mark	NNP	:	:	``	``	Hi	NNP	Mark	NNP	,	,
700006	find	VB	a	DT	image	NN	of	IN	Saturn	NNP	on	IN	Flickr	NNP	.	.	send	VB	a	DT
700008	get	VB	twit	NNS	that	WDT	contain	VBP	the	DT	hashtag	NN	#championsleague	NN	.	.	.	.	.	.
502328	show	NN	I	PRP	the	DT	direction	NNS	to	TO	go	VB	to	TO	Galway	NNP	from	IN	Dublin	NNP
502328	check	VB	on	IN	Google	NNP	Maps	NNP	how	WRB	can	MD	I	PRP	reach	VB	Galway	NNP	when	WRB
700009	Register	NNP	in	IN	my	PRP$	agenda	NN	a	DT	appointment	NN	call	VBN	``	``	travel	NN	''	''
700009	set	VB	a	DT	appointment	NN	on	IN	August	NNP	13	CD	at	IN	13h	CD	name	VBG	it	PRP
601225	when	WRB	a	DT	new	JJ	email	NN	from	IN	Carmen	NNP	Souza	NNP	arrive	VBZ	,	,	translate	VB
601225	check	VB	if	IN	there	EX	be	VBZ	a	DT	new	JJ	email	NN	from	IN	Carmen	NNP	Souza	NNP
601223	add	VB	in	IN	my	PRP$	agenda	NN	:	:	Jean	NNP	Meer	NNP	,	,	+	CC	1-888-747-8585	CD
600591	when	WRB	a	DT	new	JJ	GitHub	NNP	issue	NN	be	VBZ	create	VBN	,	,	get	VB	the	DT
601206	capture	VB	news	NN	from	IN	the	DT	New	NNP	York	NNP	Times	NNP	,	,	in	IN	the	DT
601888	Wherever	NNP	the	DT	Wikipedia	NNP	deliver	VBZ	a	DT	new	JJ	picture	NN	of	IN	the	DT	day	NN
600408	if	IN	Manchester	NNP	United	NNP	win	VBZ	the	DT	game	NN	call	VB	I	PRP	with	IN	``	``
700008	check	VB	the	DT	hashtag	NN	#finsysfail	NN	.	.	for	IN	each	DT	tweet	NN	,	,	open	VB
600831	open	VB	the	DT	door	NN	always	RB	when	WRB	reach	VBN	Central	NNP	Park	NNP	.	.	.	.
601791	turn	VB	on	IN	a	DT	red	JJ	light	NN	when	WRB	the	DT	quality	NN	of	IN	the	DT
503062	list	NN	flight	NNS	from	IN	muc	NN	to	TO	lis	NN	depart	VBG	on	IN	20	CD	Nov	NNP
503062	show	NN	all	DT	ticket	NNS	on	IN	20	CD	Nov	NNP	from	IN	Munich	NNP	,	,	Germany	NNP
600326	take	VB	a	DT	picture	NN	use	VBG	the	DT	camera	NN	in	IN	the	DT	garden	NN	.	.
503155	translate	VB	the	DT	hashtag	NN	#wtf	NN	and	CC	send	VB	to	TO	my	PRP$	skype	VB	.	.
